^C:\OPI\ISSUE-TRACKING-LAB\ISSUE-TRACKING-LAB\DEBUG\TASK.OBJ
C:\OPI\ISSUE-TRACKING-LAB\DEBUG\ISSUE-TRACKING-LAB.EXE
C:\OPI\ISSUE-TRACKING-LAB\DEBUG\ISSUE-TRACKING-LAB.ILK
C:\OPI\ISSUE-TRACKING-LAB\DEBUG\ISSUE-TRACKING-LAB.PDB
